…
base_url = "https://www.amazon.com/product-reviews/B00005JNBQ/ref=cm_cr_arp_d_viewopt_rvwer?ie=UTF8&reviewerType=avp_only_reviews&sortBy=recent&pageNumber="

urls = str_c(base_url, 1:5)

bind_rows(
  get_page_reviews(urls[1]),
  get_page_reviews(urls[2]),
  get_page_reviews(urls[3]),
  get_page_reviews(urls[4]),
  get_page_reviews(urls[5])
)
```

    ## # A tibble: 50 × 3
    ##    title                                                 stars text             
    ##    <chr>                                                 <dbl> <chr>            
    ##  1 it was                                                    5 "mad good yo"    
    ##  2 Fun!                                                      4 "Fun and enterta…
    ##  3 Vintage                                                   5 "Easy to order. …
    ##  4 too many commercials                                      1 "5 minutes into …
    ##  5 this film is so good!                                     5 "VOTE FOR PEDRO!"
    ##  6 Good movie                                                5 "Weird story, go…
    ##  7 I Just everyone to know this....                          5 "VOTE FOR PEDRO …
    ##  8 the cobweb in his hair during the bike ramp scene lol     5 "5 stars for bei…
    ##  9 Best quirky movie ever                                    5 "You all know th…
    ## 10 Classic Film                                              5 "Had to order th…
    ## # … with 40 more rows
